{
        "name": {
          "type": "string",
          "title": "Fullname"
        },
        "contacts": {
          "type": "string",
          "title": "Contacts"
        },
        "place_of_birth": {
          "type": "string",
          "title": "Place Of Birth"
        },
        "date_of_birth": {
          "type": "date",
          "title": "Date Of Birth"
        },
        "nationality": {
          "type": "string",
          "title": "Nationality"
        },
        "passport_no": {
          "type": "string",
          "title": "Passport Number"
        },
        "date_of_issue":{
         "type":"date",
         "title":"Date Of Issue"
        },
        "place_of_issue": {
          "type": "string",
          "title": "Place Of Issue"
        },
        "full_names_of_spouse":{
          "type":"array",
          "title":"Full Names Of Spouse(s)",
          "items":{
            "type":"string",
            "title":"spouse name"
          }
        },
        "particulars_of_children":{
          "type":"array",
          "title":"Particulars Of Children",
          "items":{
            "type":"object",
            "properties":{
              "names":{
                "type":"string",
                "title":"Full Names"
              },
              "gender": {
                "type": "string",
                "title": "Sex",
                "enum": [ "male", "female", "alien" ]
              },
              "date_of_birth":{
               "type":"date",
               "title":"Date Of Birth"
              },
              "place_of_birth": {
                "type": "string",
                "title": "Place Of Birth"
              }
            }
          }
        },
        "particulars_of_Previous_permit":{
          "type":"string",
          "title":"particulars of previous permits"
        },
        "particulars_Of_Previous_permits_declined":{
          "type":"object",
           "title":"Particulars Of Previous Permit Applications Of Which Were Declined",
          "properties":{
            "date_of_application":{
              "type":"date",
              "title":"Date Of Application"
            },
            "class":{
              "type":"string",
              "title":"class"
            },
            "reasons_for_rejection":{
              "type":"string",
              "title":"Reasons For Rejection"
            }
          }
        },
        "part_i":{
          "type":"object",
          "title":"Part I (To be completed in respect of employees by the employer)",
          "properties":{
            "name_of_employer":{
              "type":"string",
              "title":"Name Of Employer"
            },
            "postal_address":{
              "type":"string",
              "title":"Postal Address"
            },
            "bussiness":{
              "type":"string",
              "title":"State Profession Or Business"
            }
          }
        }
      }