 {
    "birth certificate":{
     "type":"object",
     "title":"Birth Certificate",
     "properties":{

    "name": {
      "type": "string",
       "title": "Name",
      "description": "First and Last name"
    },
    "fathers_name": {
      "type": "string",
       "title": "Father's Name",
      "description": "name of the father"
    },
    "mothers_name": {
      "type": "string",
      "title": "Mother's Name",
      "description": "name of the mother"
    },
    "gender": {
      "type": "string",
      "title": "SEX",
      "enum": [
        "male",
        "female"
      ]
    },
    "date_of_birth": {
      "type": "date",
       "title": "Date Of Birth"
    },
    "district": {
      "type": "string",
      "title": "District"
    },
    "birth_entry_no": {
      "type": "string",
      "title": "Entry Number"
    }

     }
   }


  }
}